…
The functions contained in the **senamhiR** functions allow for the
discovery and visualization of meteorological and hydrological stations,
and the acquisition of daily climate data from these stations.

### `station_search()`

To search for a station by name, use the `station_search()` function.
For instance, to search for a station with the word ‘Santa’ in the
station name, use the following code:

``` r
station_search("Santa")
```

    ## # A tibble: 43 x 14
    ##    Station StationID Type  Configuration `Data Start` `Data End`
    ##    <chr>   <chr>     <chr> <chr>         <chr>        <chr>     
    ##  1 SANTA … 000256    CON   M             1951         2018      
    ##  2 SANTA   000433    CON   M             1964         1986      
    ##  3 SANTA … 158201    CON   M             1964         1982      
    ##  4 SANTA … 000829    CON   M             1977         1992      
    ##  5 SANTA … 000834    CON   M             1963         1973      
    ##  6 SANTA … 113248    SUT   M             2015         2016      
    ##  7 SANTA … 153200    CON   M             1963         1983      
    ##  8 SANTA … 000351    CON   M             1963         2018      
    ##  9 HACIEN… 000766    CON   M             1954         1955      
    ## 10 SANTA … 000515    CON   M             1942         1947      
    ## # ... with 33 more rows, and 8 more variables: `Period (Yr)` <dbl>,
    ## #   `Station Status` <fct>, Latitude <dbl>, Longitude <dbl>,
    ## #   Altitude <int>, Region <chr>, Province <chr>, District <chr>

Note that the `tbl_df` object (a special sort of `data.frame`) won’t
print more than the first 10 rows by default. To see all of the results,
you can wrap the command in `View()` so that it becomes
`View(find_station("Santa"))`.

Note that you can also use wildcards as supported by the `glob2rx()`
from the **utils** package by passing the argument `glob = TRUE`, as in
the following example.

``` r
station_search("San*", glob = TRUE)
```

    ## # A tibble: 139 x 14
    ##    Station StationID Type  Configuration `Data Start` `Data End`
    ##    <chr>   <chr>     <chr> <chr>         <chr>        <chr>     
    ##  1 SAN RA… 152222    CON   M             1965         1966      
    ##  2 SANTA … 000256    CON   M             1951         2018      
    ##  3 SAN PE… 211404    CON   H             2009         2018      
    ##  4 SANTIA… 000426    CON   M             1998         2018      
    ##  5 SAN DI… 000420    CON   M             1959         1962      
    ##  6 SAN LO… 000430    CON   M             1966         1972      
    ##  7 SAN JA… 000424    CON   M             1956         1968      
    ##  8 SAN JA… 201901    CON   H             1947         1990      
    ##  9 SANTA   000433    CON   M             1964         1986      
    ## 10 SANTA … 158201    CON   M             1964         1982      
    ## # ... with 129 more rows, and 8 more variables: `Period (Yr)` <dbl>,
    ## #   `Station Status` <fct>, Latitude <dbl>, Longitude <dbl>,
    ## #   Altitude <int>, Region <chr>, Province <chr>, District <chr>

You can filter your search results by region, by station type, by a
given period, and by proximity to another station or a vector of
coordinates. You can use any combination of these four filters in your
search. The function is fully documented, so take a look at
`?station_search`. Let’s see some examples.

#### Find all stations in the San Martín Region

``` r
station_search(region = "SAN MARTIN")
```

    ## # A tibble: 72 x 14
    ##    Station StationID Type  Configuration `Data Start` `Data End`
    ##    <chr>   <chr>     <chr> <chr>         <chr>        <chr>     
    ##  1 CUZCO   000389    CON   M             1966         1970      
    ##  2 DOS DE… 153225    CON   M             1963         2018      
    ##  3 CUZCO-… 153345    CON   M             1996         2018      
    ##  4 BIAVO   221804    CON   H             1969         2018      
    ##  5 LA UNI… 000384    CON   M             1970         2018      
    ##  6 NUEVO … 153312    CON   M             1963         2018      
    ##  7 BELLAV… 000382    CON   M             1963         2018      
    ##  8 SAN PA… 153307    CON   M             1967         2018      
    ##  9 SISA    000381    CON   M             1964         1988      
    ## 10 ALAO    003308    CON   M             1972         2018      
    ## # ... with 62 more rows, and 8 more variables: `Period (Yr)` <dbl>,
    ## #   `Station Status` <fct>, Latitude <dbl>, Longitude <dbl>,
    ## #   Altitude <int>, Region <chr>, Province <chr>, District <chr>
…
#### Find all stations between 0 and 100 km from Station No. 000401

``` r
station_search(target = "000401", dist = 0:100)
```

    ## # A tibble: 58 x 15
    ##    Station StationID Type  Configuration `Data Start` `Data End`
    ##    <chr>   <chr>     <chr> <chr>         <chr>        <chr>     
    ##  1 TARAPO… 000401    CON   M             1998         2018      
    ##  2 CUNUMB… 153311    CON   M             1963         2018      
    ##  3 CUMBAZA 221801    CON   H             1968         2018      
    ##  4 LAMAS   000383    CON   M             1963         2018      
    ##  5 SAN AN… 153314    CON   M             1963         2018      
    ##  6 SHANAO  221802    CON   H             1965         2018      
    ##  7 SHANAO  210006    SUT   H             2016         2018      
    ##  8 SHANAO  153328    CON   M             2002         2018      
    ##  9 TABALO… 000322    CON   M             1963         2018      
    ## 10 EL POR… 000310    CON   M             1964         2018      
    ## # ... with 48 more rows, and 9 more variables: `Period (Yr)` <dbl>,
    ## #   `Station Status` <fct>, Latitude <dbl>, Longitude <dbl>,
    ## #   Altitude <int>, Region <chr>, Province <chr>, District <chr>,
    ## #   Dist <dbl>
…
``` r
requ <- senamhiR("000280", 1981:2010)
```

*Note: Since the StationID numbers contain leading zeros, any station
that is less than six characters long will be padded with zeroes.
i.e. 280 becomes 000280.*

``` r
requ
```

    ## # A tibble: 10,957 x 13
    ##    Fecha      `Tmax (C)` `Tmin (C)` `TBS07 (C)` `TBS13 (C)` `TBS19 (C)`
    ##    <date>          <dbl>      <dbl>       <dbl>       <dbl>       <dbl>
    ##  1 1981-01-01       35         23          24.8        30.2        24.4
    ##  2 1981-01-02       34         22.2        24.2        30          25.6
    ##  3 1981-01-03       29         23.2        24.6        25.2        24  
    ##  4 1981-01-04       30.2       22          24.6        28          25  
    ##  5 1981-01-05       33         22.4        24          25          23.4
    ##  6 1981-01-06       35.2       23          25          30.8        27.8
    ##  7 1981-01-07       33.6       23          25.4        30.8        26  
    ##  8 1981-01-08       37.4       22.8        25.4        35          24  
    ##  9 1981-01-09       35         23          27          35          26  
    ## 10 1981-01-10       35.6       22.4        24.8        34.4        28  
    ## # ... with 10,947 more rows, and 7 more variables: `TBH07 (C)` <dbl>,
    ## #   `TBH13 (C)` <dbl>, `TBH19 (C)` <dbl>, `Prec07 (mm)` <dbl>, `Prec19
    ## #   (mm)` <dbl>, `Direccion del Viento` <chr>, `Velocidad del Viento
    ## #   (m/s)` <dbl>
…
